<?xml version="1.0" encoding="iso-8859-1"?>
<!-- Generator: Adobe Illustrator 22.0.1, SVG Export Plug-In . SVG Version: 6.00 Build 0)  -->
<svg version="1.1" id="illustration" xmlns="http://www.w3.org/2000/svg" xmlns:xlink="http://www.w3.org/1999/xlink" x="0px"
	 y="0px" viewBox="0 0 224.66 159.717" style="enable-background:new 0 0 224.66 159.717;" xml:space="preserve">
<g id="laptop">
	<path style="fill-rule:evenodd;clip-rule:evenodd;fill:#FFFFFF;" d="M188.974,3.425H35.677c-3.528,0-6.387,2.86-6.387,6.387v90.897
		c0,3.528,2.86,6.388,6.387,6.388h153.298c3.527,0,6.387-2.86,6.387-6.388V9.812C195.362,6.284,192.502,3.425,188.974,3.425z
		 M186.188,93.974H38.548V11.761h147.64V93.974z"/>
	<path style="fill-rule:evenodd;clip-rule:evenodd;fill:#FFFFFF;" d="M3.662,150.562c0,3.49,2.593,6.469,5.632,6.469h206.156
		c3.039,0,5.502-2.829,5.502-6.319v-0.632L3.662,150.562z M121.265,156.475h-17.788c-0.702-1.368-1.106-2.914-1.106-4.557
		c0-0.318,0.018-0.631,0.048-0.942l19.902-0.058c0.033,0.329,0.05,0.662,0.05,0.999
		C122.372,153.561,121.968,155.107,121.265,156.475z"/>
	<path style="fill-rule:evenodd;clip-rule:evenodd;fill:#FFFFFF;" d="M177.662,82.562h-92v-43h92V82.562z M50.662,23.562v10h127v-10
		H50.662z M76.662,39.562h-26v10h26V39.562z M76.662,55.562h-26v10h26V55.562z M76.662,71.562h-26v10h26V71.562z"/>
	<path style="fill-rule:evenodd;clip-rule:evenodd;fill:#FFFFFF;" d="M196.046,111.528l-166.187,0.229L3.877,149.562l217.171-0.342
		L196.046,111.528z M195.611,135.911h-5.536l-5.806-11.974h5.149L195.611,135.911z M128.658,123.938h5.149l0.872,5.185h-5.317
		L128.658,123.938z M129.225,136.282h-5.548l-0.503-5.185h5.381L129.225,136.282z M135.011,131.097l0.872,5.185h-5.548l-0.704-5.185
		H135.011z M135.742,129.122l-0.905-5.185h5.149l1.073,5.185H135.742z M141.468,131.097l1.073,5.185h-5.548l-0.906-5.185H141.468z
		 M142.122,129.122l-1.106-5.185h5.149l1.274,5.185H142.122z M179.339,129.122h-5.317l-2.112-5.185h5.149L179.339,129.122z
		 M178.09,123.938h5.149l2.48,5.185h-5.317L178.09,123.938z M172.959,129.122h-5.317l-1.911-5.185h5.149L172.959,129.122z
		 M166.579,129.122h-5.317l-1.71-5.185h5.15L166.579,129.122z M160.199,129.122h-5.317l-1.509-5.185h5.149L160.199,129.122z
		 M153.819,129.122h-5.317l-1.308-5.185h5.149L153.819,129.122z M147.924,131.097l1.274,5.185h-5.548l-1.106-5.185H147.924z
		 M149,131.097h5.38l1.475,5.185h-5.548L149,131.097z M155.457,131.097h5.381l1.676,5.185h-5.548L155.457,131.097z M161.914,131.097
		h5.381l1.877,5.185h-5.548L161.914,131.097z M168.37,131.097h5.38l2.078,5.185h-5.548L168.37,131.097z M174.827,131.097h5.381
		l2.279,5.185h-5.548L174.827,131.097z M181.284,131.097h5.38l2.48,5.185h-5.548L181.284,131.097z M186.034,117.395l2.681,5.185
		h-5.105l-2.514-5.185H186.034z M180.109,117.395l2.48,5.185h-5.105l-2.313-5.185H180.109z M174.184,117.395l2.279,5.185h-5.105
		l-2.112-5.185H174.184z M168.258,117.395l2.078,5.185h-5.105l-1.911-5.185H168.258z M162.333,117.395l1.877,5.185h-5.106
		l-1.71-5.185H162.333z M156.408,117.395l1.676,5.185h-5.105l-1.509-5.185H156.408z M150.482,117.395l1.475,5.185h-5.105
		l-1.307-5.185H150.482z M144.557,117.395l1.274,5.185h-5.105l-1.106-5.185H144.557z M138.632,117.395l1.073,5.185H134.6
		l-0.905-5.185H138.632z M132.707,117.395l0.872,5.185h-5.105l-0.704-5.185H132.707z M128.299,129.122h-5.317l-0.503-5.185h5.149
		L128.299,129.122z M122.568,136.282h-5.548l-0.302-5.185h5.381L122.568,136.282z M126.781,117.395l0.671,5.185h-5.105l-0.503-5.185
		H126.781z M121.919,129.122h-5.317l-0.302-5.185h5.149L121.919,129.122z M120.856,117.395l0.47,5.185h-5.106l-0.302-5.185H120.856z
		 M115.91,136.282h-5.548l-0.101-5.185h5.38L115.91,136.282z M115.539,129.122h-5.317l-0.101-5.185h5.149L115.539,129.122z
		 M114.931,117.395l0.269,5.185h-5.105l-0.101-5.185H114.931z M104.068,117.395h4.938l0.068,5.185h-5.105L104.068,117.395z
		 M103.942,123.938h5.149l0.068,5.185h-5.317L103.942,123.938z M103.804,131.097h5.381l0.068,5.185h-5.548L103.804,131.097z
		 M98.143,117.395h4.938l-0.134,5.185h-5.105L98.143,117.395z M97.763,123.938h5.149l-0.133,5.185h-5.317L97.763,123.938z
		 M102.728,131.097l-0.133,5.185h-5.548l0.301-5.185H102.728z M92.217,117.395h4.938l-0.334,5.185h-5.105L92.217,117.395z
		 M96.733,123.938l-0.334,5.185h-5.317l0.502-5.185H96.733z M96.271,131.097l-0.334,5.185h-5.548l0.502-5.185H96.271z
		 M86.292,117.395h4.938l-0.536,5.185h-5.105L86.292,117.395z M90.554,123.938l-0.536,5.185h-5.317l0.703-5.185H90.554z
		 M64.498,129.122h-5.317l1.507-5.185h5.149L64.498,129.122z M66.868,123.938h5.149l-1.139,5.185h-5.317L66.868,123.938z
		 M58.118,129.122h-5.317l1.708-5.185h5.149L58.118,129.122z M51.738,129.122h-5.317l1.91-5.185h5.149L51.738,129.122z
		 M51.074,131.097l-1.742,5.185h-5.548l1.91-5.185H51.074z M52.151,131.097h5.381l-1.541,5.185h-5.548L52.151,131.097z
		 M58.607,131.097h5.38l-1.34,5.185H57.1L58.607,131.097z M65.064,131.097h5.38l-1.139,5.185h-5.548L65.064,131.097z
		 M71.521,131.097h5.38l-0.938,5.185h-5.548L71.521,131.097z M71.942,129.122l1.105-5.185h5.149l-0.938,5.185H71.942z
		 M77.977,131.097h5.38l-0.737,5.185h-5.548L77.977,131.097z M78.322,129.122l0.904-5.185h5.149l-0.737,5.185H78.322z
		 M84.434,131.097h5.381l-0.536,5.185h-5.548L84.434,131.097z M80.367,117.395h4.938l-0.737,5.185h-5.105L80.367,117.395z
		 M79.379,117.395l-0.938,5.185h-5.105l1.105-5.185H79.379z M73.454,117.395l-1.139,5.185H67.21l1.306-5.185H73.454z
		 M67.529,117.395l-1.34,5.185h-5.105l1.507-5.185H67.529z M61.603,117.395l-1.541,5.185h-5.105l1.708-5.185H61.603z
		 M55.678,117.395l-1.742,5.185h-5.105l1.91-5.185H55.678z M49.753,117.395l-1.943,5.185h-5.105l2.111-5.185H49.753z M38.89,117.395
		h4.938l-2.144,5.185h-5.105L38.89,117.395z M35.973,123.938h11.586l-1.935,5.185H33.661L35.973,123.938z M33.049,131.097h12.106
		l-1.926,5.185H30.746L33.049,131.097z M27.497,142.948l2.312-5.185h5.596l-2.144,5.185H27.497z M34.413,142.948l2.11-5.185h5.596
		l-1.943,5.185H34.413z M41.329,142.948l1.91-5.185h5.596l-1.742,5.185H41.329z M48.245,142.948l1.708-5.185h5.596l-1.541,5.185
		H48.245z M55.162,142.948l1.507-5.185h5.596l-1.34,5.185H55.162z M67.841,142.948h-5.763l1.306-5.185h5.596L67.841,142.948z
		 M69.282,142.948l1.097-5.185h85.618l1.467,5.185H69.282z M158.905,142.948l-1.509-5.185h5.596l1.676,5.185H158.905z
		 M165.821,142.948l-1.71-5.185h5.596l1.877,5.185H165.821z M172.738,142.948l-1.911-5.185h5.596l2.078,5.185H172.738z
		 M179.654,142.948l-2.112-5.185h5.596l2.279,5.185H179.654z M186.57,142.948l-2.313-5.185h5.596l2.48,5.185H186.57z
		 M190.973,137.763h5.596l2.681,5.185h-5.763L190.973,137.763z"/>
</g>
</svg>
