<?xml version="1.0" encoding="iso-8859-1"?>
<!-- Generator: Adobe Illustrator 22.0.1, SVG Export Plug-In . SVG Version: 6.00 Build 0)  -->
<svg version="1.1" id="Layer_1" xmlns="http://www.w3.org/2000/svg" xmlns:xlink="http://www.w3.org/1999/xlink" x="0px" y="0px"
	 viewBox="0 0 173.292 28.938" style="enable-background:new 0 0 173.292 28.938;" xml:space="preserve">
<g id="ruler">
	<path style="fill:none;stroke:#FFFFFF;stroke-width:3;stroke-miterlimit:10;" d="M167.963,25H4.037C2.912,25,2,24.088,2,22.963
		V5.037C2,3.912,2.912,3,4.037,3h163.925C169.088,3,170,3.912,170,5.037v17.925C170,24.088,169.088,25,167.963,25z"/>
	<rect x="5.632" y="3" style="fill:#FFFFFF;" width="2.724" height="6"/>
	<rect x="11.081" y="3" style="fill:#FFFFFF;" width="2.724" height="6"/>
	<rect x="16.53" y="3" style="fill:#FFFFFF;" width="2.724" height="6"/>
	<rect x="21.978" y="3" style="fill:#FFFFFF;" width="2.724" height="6"/>
	<rect x="27.427" y="3" style="fill:#FFFFFF;" width="2.724" height="6"/>
	<rect x="32.876" y="3" style="fill:#FFFFFF;" width="2.724" height="6"/>
	<rect x="38.324" y="3" style="fill:#FFFFFF;" width="2.724" height="6"/>
	<rect x="43.773" y="3" style="fill:#FFFFFF;" width="2.724" height="6"/>
	<rect x="49.222" y="3" style="fill:#FFFFFF;" width="2.724" height="6"/>
	<rect x="54.67" y="3" style="fill:#FFFFFF;" width="2.724" height="6"/>
	<rect x="60.119" y="3" style="fill:#FFFFFF;" width="2.724" height="6"/>
	<rect x="65.568" y="3" style="fill:#FFFFFF;" width="2.724" height="6"/>
	<rect x="71.016" y="3" style="fill:#FFFFFF;" width="2.724" height="6"/>
	<rect x="76.465" y="3" style="fill:#FFFFFF;" width="2.724" height="6"/>
	<rect x="81.914" y="3" style="fill:#FFFFFF;" width="2.724" height="6"/>
	<rect x="87.362" y="3" style="fill:#FFFFFF;" width="2.724" height="6"/>
	<rect x="92.811" y="3" style="fill:#FFFFFF;" width="2.724" height="6"/>
	<rect x="98.259" y="3" style="fill:#FFFFFF;" width="2.724" height="6"/>
	<rect x="103.708" y="3" style="fill:#FFFFFF;" width="2.724" height="6"/>
	<rect x="109.157" y="3" style="fill:#FFFFFF;" width="2.724" height="6"/>
	<rect x="114.605" y="3" style="fill:#FFFFFF;" width="2.724" height="6"/>
	<rect x="120.054" y="3" style="fill:#FFFFFF;" width="2.724" height="6"/>
	<rect x="125.503" y="3" style="fill:#FFFFFF;" width="2.724" height="6"/>
	<rect x="130.951" y="3" style="fill:#FFFFFF;" width="2.724" height="6"/>
	<rect x="136.4" y="3" style="fill:#FFFFFF;" width="2.724" height="6"/>
	<rect x="141.849" y="3" style="fill:#FFFFFF;" width="2.724" height="6"/>
	<rect x="147.297" y="3" style="fill:#FFFFFF;" width="2.724" height="6"/>
	<rect x="152.746" y="3" style="fill:#FFFFFF;" width="2.724" height="6"/>
	<rect x="158.195" y="3" style="fill:#FFFFFF;" width="2.724" height="6"/>
	<rect x="163.643" y="3" style="fill:#FFFFFF;" width="2.724" height="6"/>
</g>
</svg>
