{
  "name": "collocation",
  "do": "<ul><li>For the action of placing or arranging tasks together.</li></ul>",
  "dont": "<ul><li>For location purposes.</li></ul>",
  "tags": ["collocation", "collocation constraint"]
}
