{
  "name": "virtual_host_manager",
  "do": "<ul><li>To manage the virtual hosts on a server.</li></ul>",
  "dont": "<ul><li>To represent network server.</li></ul>",
  "tags": ["manage", "virtual host"]
}
